%!PS-Adobe-3.0
%%DocumentPaperSizes: letter
%%Pages: 1
%%Title: OH.ps
%%Creator: matplotlib version 3.3.2, http://matplotlib.org/
%%CreationDate: Thu Oct  1 07:34:14 2020
%%Orientation: portrait
%%BoundingBox: -133.2 234.0 745.2 558.0
%%EndComments
%%BeginProlog
/mpldict 8 dict def
mpldict begin
/m { moveto } bind def
/l { lineto } bind def
/r { rlineto } bind def
/c { curveto } bind def
/cl { closepath } bind def
/box {
      m
      1 index 0 r
      0 exch r
      neg 0 r
      cl
    } bind def
/clipbox {
      box
      clip
      newpath
    } bind def
%!PS-Adobe-3.0 Resource-Font
%%Title: DejaVu Sans
%%Copyright: Copyright (c) 2003 by Bitstream, Inc. All Rights Reserved. Copyright (c) 2006 by Tavmjong Bah. All Rights Reserved. DejaVu changes are in public domain 
%%Creator: Converted from TrueType to type 3 by PPR
25 dict begin
/_d{bind def}bind def
/_m{moveto}_d
/_l{lineto}_d
/_cl{closepath eofill}_d
/_c{curveto}_d
/_sc{7 -1 roll{setcachedevice}{pop pop pop pop pop pop}ifelse}_d
/_e{exec}_d
/FontName /DejaVuSans def
/PaintType 0 def
/FontMatrix[.001 0 0 .001 0 0]def
/FontBBox[-1021 -463 1793 1232]def
/FontType 3 def
/Encoding [ /space /comma /hyphen /zero /one /two /three /four /five /six /seven /eight /nine /C /D /H /I /O /U /V /a /c /e /i /l /n /o /p /r /s /t /u /y ] def
/FontInfo 10 dict dup begin
/FamilyName (DejaVu Sans) def
/FullName (DejaVu Sans) def
/Notice (Copyright (c) 2003 by Bitstream, Inc. All Rights Reserved. Copyright (c) 2006 by Tavmjong Bah. All Rights Reserved. DejaVu changes are in public domain ) def
/Weight (Book) def
/Version (Version 2.35) def
/ItalicAngle 0.0 def
/isFixedPitch false def
/UnderlinePosition -130 def
/UnderlineThickness 90 def
end readonly def
/CharStrings 34 dict dup begin
/.notdef 0 def
/space{318 0 0 0 0 0 _sc
}_d
/comma{318 0 77 -115 220 124 _sc
117 124 _m
220 124 _l
220 40 _l
140 -115 _l
77 -115 _l
117 40 _l
117 124 _l
_cl}_d
/hyphen{361 0 49 234 312 314 _sc
49 314 _m
312 314 _l
312 234 _l
49 234 _l
49 314 _l
_cl}_d
/zero{636 0 66 -13 570 742 _sc
318 664 _m
267 664 229 639 203 589 _c
177 539 165 464 165 364 _c
165 264 177 189 203 139 _c
229 89 267 64 318 64 _c
369 64 407 89 433 139 _c
458 189 471 264 471 364 _c
471 464 458 539 433 589 _c
407 639 369 664 318 664 _c
318 742 _m
399 742 461 709 505 645 _c
548 580 570 486 570 364 _c
570 241 548 147 505 83 _c
461 19 399 -13 318 -13 _c
236 -13 173 19 130 83 _c
87 147 66 241 66 364 _c
66 486 87 580 130 645 _c
173 709 236 742 318 742 _c
_cl}_d
/one{636 0 110 0 544 729 _sc
124 83 _m
285 83 _l
285 639 _l
110 604 _l
110 694 _l
284 729 _l
383 729 _l
383 83 _l
544 83 _l
544 0 _l
124 0 _l
124 83 _l
_cl}_d
/two{{636 0 73 0 536 742 _sc
192 83 _m
536 83 _l
536 0 _l
73 0 _l
73 83 _l
110 121 161 173 226 239 _c
290 304 331 346 348 365 _c
380 400 402 430 414 455 _c
426 479 433 504 433 528 _c
433 566 419 598 392 622 _c
365 646 330 659 286 659 _c
255 659 222 653 188 643 _c
154 632 117 616 78 594 _c
78 694 _l
118 710 155 722 189 730 _c
223 738 255 742 284 742 _c
}_e{359 742 419 723 464 685 _c
509 647 532 597 532 534 _c
532 504 526 475 515 449 _c
504 422 484 390 454 354 _c
446 344 420 317 376 272 _c
332 227 271 164 192 83 _c
_cl}_e}_d
/three{{636 0 76 -13 556 742 _sc
406 393 _m
453 383 490 362 516 330 _c
542 298 556 258 556 212 _c
556 140 531 84 482 45 _c
432 6 362 -13 271 -13 _c
240 -13 208 -10 176 -4 _c
144 1 110 10 76 22 _c
76 117 _l
103 101 133 89 166 81 _c
198 73 232 69 268 69 _c
330 69 377 81 409 105 _c
441 129 458 165 458 212 _c
458 254 443 288 413 312 _c
383 336 341 349 287 349 _c
}_e{202 349 _l
202 430 _l
291 430 _l
339 430 376 439 402 459 _c
428 478 441 506 441 543 _c
441 580 427 609 401 629 _c
374 649 336 659 287 659 _c
260 659 231 656 200 650 _c
169 644 135 635 98 623 _c
98 711 _l
135 721 170 729 203 734 _c
235 739 266 742 296 742 _c
370 742 429 725 473 691 _c
517 657 539 611 539 553 _c
539 513 527 479 504 451 _c
481 423 448 403 406 393 _c
_cl}_e}_d
/four{636 0 49 0 580 729 _sc
378 643 _m
129 254 _l
378 254 _l
378 643 _l
352 729 _m
476 729 _l
476 254 _l
580 254 _l
580 172 _l
476 172 _l
476 0 _l
378 0 _l
378 172 _l
49 172 _l
49 267 _l
352 729 _l
_cl}_d
/five{{636 0 77 -13 549 729 _sc
108 729 _m
495 729 _l
495 646 _l
198 646 _l
198 467 _l
212 472 227 476 241 478 _c
255 480 270 482 284 482 _c
365 482 429 459 477 415 _c
525 370 549 310 549 234 _c
549 155 524 94 475 51 _c
426 8 357 -13 269 -13 _c
238 -13 207 -10 175 -6 _c
143 -1 111 6 77 17 _c
77 116 _l
106 100 136 88 168 80 _c
199 72 232 69 267 69 _c
}_e{323 69 368 83 401 113 _c
433 143 450 183 450 234 _c
450 284 433 324 401 354 _c
368 384 323 399 267 399 _c
241 399 214 396 188 390 _c
162 384 135 375 108 363 _c
108 729 _l
_cl}_e}_d
/six{{636 0 70 -13 573 742 _sc
330 404 _m
286 404 251 388 225 358 _c
199 328 186 286 186 234 _c
186 181 199 139 225 109 _c
251 79 286 64 330 64 _c
374 64 409 79 435 109 _c
461 139 474 181 474 234 _c
474 286 461 328 435 358 _c
409 388 374 404 330 404 _c
526 713 _m
526 623 _l
501 635 476 644 451 650 _c
425 656 400 659 376 659 _c
310 659 260 637 226 593 _c
}_e{192 549 172 482 168 394 _c
187 422 211 444 240 459 _c
269 474 301 482 336 482 _c
409 482 467 459 509 415 _c
551 371 573 310 573 234 _c
573 159 550 99 506 54 _c
462 9 403 -13 330 -13 _c
246 -13 181 19 137 83 _c
92 147 70 241 70 364 _c
70 479 97 571 152 639 _c
206 707 280 742 372 742 _c
396 742 421 739 447 735 _c
472 730 498 723 526 713 _c
_cl}_e}_d
/seven{636 0 82 0 551 729 _sc
82 729 _m
551 729 _l
551 687 _l
286 0 _l
183 0 _l
432 646 _l
82 646 _l
82 729 _l
_cl}_d
/eight{{636 0 68 -13 568 742 _sc
318 346 _m
271 346 234 333 207 308 _c
180 283 167 249 167 205 _c
167 161 180 126 207 101 _c
234 76 271 64 318 64 _c
364 64 401 76 428 102 _c
455 127 469 161 469 205 _c
469 249 455 283 429 308 _c
402 333 365 346 318 346 _c
219 388 _m
177 398 144 418 120 447 _c
96 476 85 511 85 553 _c
85 611 105 657 147 691 _c
188 725 245 742 318 742 _c
}_e{390 742 447 725 489 691 _c
530 657 551 611 551 553 _c
551 511 539 476 515 447 _c
491 418 459 398 417 388 _c
464 377 501 355 528 323 _c
554 291 568 251 568 205 _c
568 134 546 80 503 43 _c
459 5 398 -13 318 -13 _c
237 -13 175 5 132 43 _c
89 80 68 134 68 205 _c
68 251 81 291 108 323 _c
134 355 171 377 219 388 _c
183 544 _m
183 506 194 476 218 455 _c
}_e{242 434 275 424 318 424 _c
360 424 393 434 417 455 _c
441 476 453 506 453 544 _c
453 582 441 611 417 632 _c
393 653 360 664 318 664 _c
275 664 242 653 218 632 _c
194 611 183 582 183 544 _c
_cl}_e}_d
/nine{{636 0 63 -13 566 742 _sc
110 15 _m
110 105 _l
134 93 159 84 185 78 _c
210 72 235 69 260 69 _c
324 69 374 90 408 134 _c
442 178 462 244 468 334 _c
448 306 424 284 396 269 _c
367 254 335 247 300 247 _c
226 247 168 269 126 313 _c
84 357 63 417 63 494 _c
63 568 85 628 129 674 _c
173 719 232 742 306 742 _c
390 742 455 709 499 645 _c
543 580 566 486 566 364 _c
}_e{566 248 538 157 484 89 _c
429 21 356 -13 264 -13 _c
239 -13 214 -10 189 -6 _c
163 -2 137 5 110 15 _c
306 324 _m
350 324 385 339 411 369 _c
437 399 450 441 450 494 _c
450 546 437 588 411 618 _c
385 648 350 664 306 664 _c
262 664 227 648 201 618 _c
175 588 162 546 162 494 _c
162 441 175 399 201 369 _c
227 339 262 324 306 324 _c
_cl}_e}_d
/C{{698 0 56 -13 644 742 _sc
644 673 _m
644 569 _l
610 599 575 622 537 638 _c
499 653 460 661 418 661 _c
334 661 270 635 226 584 _c
182 533 160 460 160 364 _c
160 268 182 194 226 143 _c
270 92 334 67 418 67 _c
460 67 499 74 537 90 _c
575 105 610 128 644 159 _c
644 56 _l
609 32 572 15 534 4 _c
496 -7 455 -13 412 -13 _c
302 -13 215 20 151 87 _c
}_e{87 154 56 246 56 364 _c
56 481 87 573 151 641 _c
215 708 302 742 412 742 _c
456 742 497 736 535 725 _c
573 713 610 696 644 673 _c
_cl}_e}_d
/D{770 0 98 0 711 729 _sc
197 648 _m
197 81 _l
316 81 _l
416 81 490 103 537 149 _c
583 195 607 267 607 365 _c
607 463 583 534 537 580 _c
490 625 416 648 316 648 _c
197 648 _l
98 729 _m
301 729 _l
442 729 546 699 612 641 _c
678 582 711 490 711 365 _c
711 239 677 147 611 88 _c
545 29 441 0 301 0 _c
98 0 _l
98 729 _l
_cl}_d
/H{752 0 98 0 654 729 _sc
98 729 _m
197 729 _l
197 430 _l
555 430 _l
555 729 _l
654 729 _l
654 0 _l
555 0 _l
555 347 _l
197 347 _l
197 0 _l
98 0 _l
98 729 _l
_cl}_d
/I{295 0 98 0 197 729 _sc
98 729 _m
197 729 _l
197 0 _l
98 0 _l
98 729 _l
_cl}_d
/O{787 0 56 -13 731 742 _sc
394 662 _m
322 662 265 635 223 582 _c
181 528 160 456 160 364 _c
160 272 181 199 223 146 _c
265 92 322 66 394 66 _c
465 66 522 92 564 146 _c
606 199 627 272 627 364 _c
627 456 606 528 564 582 _c
522 635 465 662 394 662 _c
394 742 _m
496 742 577 707 639 639 _c
700 571 731 479 731 364 _c
731 248 700 157 639 89 _c
577 21 496 -13 394 -13 _c
291 -13 209 21 148 89 _c
86 157 56 248 56 364 _c
56 479 86 571 148 639 _c
209 707 291 742 394 742 _c
_cl}_d
/U{732 0 87 -13 645 729 _sc
87 729 _m
186 729 _l
186 286 _l
186 208 200 151 228 117 _c
256 83 302 66 366 66 _c
429 66 475 83 503 117 _c
531 151 546 208 546 286 _c
546 729 _l
645 729 _l
645 274 _l
645 178 621 107 574 59 _c
527 11 458 -13 366 -13 _c
274 -13 204 11 157 59 _c
110 107 87 178 87 274 _c
87 729 _l
_cl}_d
/V{684 0 8 0 676 729 _sc
286 0 _m
8 729 _l
111 729 _l
342 115 _l
573 729 _l
676 729 _l
398 0 _l
286 0 _l
_cl}_d
/a{{613 0 60 -13 522 560 _sc
343 275 _m
270 275 220 266 192 250 _c
164 233 150 205 150 165 _c
150 133 160 107 181 89 _c
202 70 231 61 267 61 _c
317 61 357 78 387 114 _c
417 149 432 196 432 255 _c
432 275 _l
343 275 _l
522 312 _m
522 0 _l
432 0 _l
432 83 _l
411 49 385 25 355 10 _c
325 -5 287 -13 243 -13 _c
187 -13 142 2 109 33 _c
76 64 60 106 60 159 _c
}_e{60 220 80 266 122 298 _c
163 329 224 345 306 345 _c
432 345 _l
432 354 _l
432 395 418 427 391 450 _c
364 472 326 484 277 484 _c
245 484 215 480 185 472 _c
155 464 127 453 100 439 _c
100 522 _l
132 534 164 544 195 550 _c
226 556 256 560 286 560 _c
365 560 424 539 463 498 _c
502 457 522 395 522 312 _c
_cl}_e}_d
/c{{550 0 55 -13 488 560 _sc
488 526 _m
488 442 _l
462 456 437 466 411 473 _c
385 480 360 484 334 484 _c
276 484 230 465 198 428 _c
166 391 150 339 150 273 _c
150 206 166 154 198 117 _c
230 80 276 62 334 62 _c
360 62 385 65 411 72 _c
437 79 462 90 488 104 _c
488 21 _l
462 9 436 0 410 -5 _c
383 -10 354 -13 324 -13 _c
242 -13 176 12 128 64 _c
}_e{79 115 55 185 55 273 _c
55 362 79 432 128 483 _c
177 534 244 560 330 560 _c
358 560 385 557 411 551 _c
437 545 463 537 488 526 _c
_cl}_e}_d
/e{{615 0 55 -13 562 560 _sc
562 296 _m
562 252 _l
149 252 _l
153 190 171 142 205 110 _c
238 78 284 62 344 62 _c
378 62 412 66 444 74 _c
476 82 509 95 541 113 _c
541 28 _l
509 14 476 3 442 -3 _c
408 -9 373 -13 339 -13 _c
251 -13 182 12 131 62 _c
80 112 55 181 55 268 _c
55 357 79 428 127 481 _c
175 533 241 560 323 560 _c
397 560 455 536 498 489 _c
}_e{540 441 562 377 562 296 _c
472 322 _m
471 371 457 410 431 440 _c
404 469 368 484 324 484 _c
274 484 234 469 204 441 _c
174 413 156 373 152 322 _c
472 322 _l
_cl}_e}_d
/i{278 0 94 0 184 760 _sc
94 547 _m
184 547 _l
184 0 _l
94 0 _l
94 547 _l
94 760 _m
184 760 _l
184 646 _l
94 646 _l
94 760 _l
_cl}_d
/l{278 0 94 0 184 760 _sc
94 760 _m
184 760 _l
184 0 _l
94 0 _l
94 760 _l
_cl}_d
/n{634 0 91 0 549 560 _sc
549 330 _m
549 0 _l
459 0 _l
459 327 _l
459 379 448 417 428 443 _c
408 469 378 482 338 482 _c
289 482 251 466 223 435 _c
195 404 181 362 181 309 _c
181 0 _l
91 0 _l
91 547 _l
181 547 _l
181 462 _l
202 494 227 519 257 535 _c
286 551 320 560 358 560 _c
420 560 468 540 500 501 _c
532 462 549 405 549 330 _c
_cl}_d
/o{612 0 55 -13 557 560 _sc
306 484 _m
258 484 220 465 192 427 _c
164 389 150 338 150 273 _c
150 207 163 156 191 118 _c
219 80 257 62 306 62 _c
354 62 392 80 420 118 _c
448 156 462 207 462 273 _c
462 337 448 389 420 427 _c
392 465 354 484 306 484 _c
306 560 _m
384 560 445 534 490 484 _c
534 433 557 363 557 273 _c
557 183 534 113 490 63 _c
445 12 384 -13 306 -13 _c
227 -13 165 12 121 63 _c
77 113 55 183 55 273 _c
55 363 77 433 121 484 _c
165 534 227 560 306 560 _c
_cl}_d
/p{{635 0 91 -207 580 560 _sc
181 82 _m
181 -207 _l
91 -207 _l
91 547 _l
181 547 _l
181 464 _l
199 496 223 520 252 536 _c
281 552 316 560 356 560 _c
422 560 476 533 518 481 _c
559 428 580 359 580 273 _c
580 187 559 117 518 65 _c
476 13 422 -13 356 -13 _c
316 -13 281 -5 252 10 _c
223 25 199 49 181 82 _c
487 273 _m
487 339 473 390 446 428 _c
418 466 381 485 334 485 _c
}_e{286 485 249 466 222 428 _c
194 390 181 339 181 273 _c
181 207 194 155 222 117 _c
249 79 286 61 334 61 _c
381 61 418 79 446 117 _c
473 155 487 207 487 273 _c
_cl}_e}_d
/r{411 0 91 0 411 560 _sc
411 463 _m
401 469 390 473 378 476 _c
366 478 353 480 339 480 _c
288 480 249 463 222 430 _c
194 397 181 350 181 288 _c
181 0 _l
91 0 _l
91 547 _l
181 547 _l
181 462 _l
199 495 224 520 254 536 _c
284 552 321 560 365 560 _c
371 560 378 559 386 559 _c
393 558 401 557 411 555 _c
411 463 _l
_cl}_d
/s{{521 0 54 -13 472 560 _sc
443 531 _m
443 446 _l
417 458 391 468 364 475 _c
336 481 308 485 279 485 _c
234 485 200 478 178 464 _c
156 450 145 430 145 403 _c
145 382 153 366 169 354 _c
185 342 217 330 265 320 _c
296 313 _l
360 299 405 279 432 255 _c
458 230 472 195 472 151 _c
472 100 452 60 412 31 _c
372 1 316 -13 246 -13 _c
216 -13 186 -10 154 -5 _c
}_e{122 0 89 8 54 20 _c
54 113 _l
87 95 120 82 152 74 _c
184 65 216 61 248 61 _c
290 61 323 68 346 82 _c
368 96 380 117 380 144 _c
380 168 371 187 355 200 _c
339 213 303 226 247 238 _c
216 245 _l
160 257 119 275 95 299 _c
70 323 58 356 58 399 _c
58 450 76 490 112 518 _c
148 546 200 560 268 560 _c
301 560 332 557 362 552 _c
391 547 418 540 443 531 _c
}_e{_cl}_e}_d
/t{392 0 27 0 368 702 _sc
183 702 _m
183 547 _l
368 547 _l
368 477 _l
183 477 _l
183 180 _l
183 135 189 106 201 94 _c
213 81 238 75 276 75 _c
368 75 _l
368 0 _l
276 0 _l
206 0 158 13 132 39 _c
106 65 93 112 93 180 _c
93 477 _l
27 477 _l
27 547 _l
93 547 _l
93 702 _l
183 702 _l
_cl}_d
/u{634 0 85 -13 543 560 _sc
85 216 _m
85 547 _l
175 547 _l
175 219 _l
175 167 185 129 205 103 _c
225 77 255 64 296 64 _c
344 64 383 79 411 110 _c
439 141 453 183 453 237 _c
453 547 _l
543 547 _l
543 0 _l
453 0 _l
453 84 _l
431 50 405 26 377 10 _c
348 -5 315 -13 277 -13 _c
214 -13 166 6 134 45 _c
101 83 85 140 85 216 _c
311 560 _m
311 560 _l
_cl}_d
/y{592 0 30 -207 562 547 _sc
322 -50 _m
296 -114 271 -157 247 -177 _c
223 -197 191 -207 151 -207 _c
79 -207 _l
79 -132 _l
132 -132 _l
156 -132 175 -126 189 -114 _c
203 -102 218 -75 235 -31 _c
251 9 _l
30 547 _l
125 547 _l
296 119 _l
467 547 _l
562 547 _l
322 -50 _l
_cl}_d
end readonly def

/BuildGlyph
 {exch begin
 CharStrings exch
 2 copy known not{pop /.notdef}if
 true 3 1 roll get exec
 end}_d

/BuildChar {
 1 index /Encoding get exch get
 1 index /BuildGlyph get exec
}_d

FontName currentdict end definefont pop
end
%%EndProlog
%%Page: 1 1
mpldict begin
-133.2 234 translate
878.4 324 0 0 clipbox
gsave
0 0 m
878.4 0 l
878.4 324 l
0 324 l
cl
0.941 setgray
fill
grestore
gsave
70.272 22.68 m
834.48 22.68 l
834.48 285.12 l
70.272 285.12 l
cl
0.941 setgray
fill
grestore
1.000 setlinewidth
1 setlinejoin
0 setlinecap
[] 0 setdash
0.796 setgray
gsave
764.2 262.4 70.27 22.68 clipbox
105.008727 22.68 m
105.008727 285.12 l
stroke
grestore
0.000 setgray
/DejaVuSans findfont
14.000 scalefont
setfont
gsave
82.552563 -38.725416 translate
45.000000 rotate
0.000000 0 m /two glyphshow
8.907227 0 m /zero glyphshow
17.814453 0 m /two glyphshow
26.721680 0 m /zero glyphshow
35.628906 0 m /zero glyphshow
44.536133 0 m /nine glyphshow
53.443359 0 m /one glyphshow
62.350586 0 m /three glyphshow
grestore
0.796 setgray
gsave
764.2 262.4 70.27 22.68 clipbox
145.875465 22.68 m
145.875465 285.12 l
stroke
grestore
0.000 setgray
gsave
123.419301 -38.725416 translate
45.000000 rotate
0.000000 0 m /two glyphshow
8.907227 0 m /zero glyphshow
17.814453 0 m /two glyphshow
26.721680 0 m /zero glyphshow
35.628906 0 m /zero glyphshow
44.536133 0 m /nine glyphshow
53.443359 0 m /one glyphshow
62.350586 0 m /four glyphshow
grestore
0.796 setgray
gsave
764.2 262.4 70.27 22.68 clipbox
186.742203 22.68 m
186.742203 285.12 l
stroke
grestore
0.000 setgray
gsave
164.286039 -38.725416 translate
45.000000 rotate
0.000000 0 m /two glyphshow
8.907227 0 m /zero glyphshow
17.814453 0 m /two glyphshow
26.721680 0 m /zero glyphshow
35.628906 0 m /zero glyphshow
44.536133 0 m /nine glyphshow
53.443359 0 m /one glyphshow
62.350586 0 m /five glyphshow
grestore
0.796 setgray
gsave
764.2 262.4 70.27 22.68 clipbox
227.608941 22.68 m
227.608941 285.12 l
stroke
grestore
0.000 setgray
gsave
205.152777 -38.725416 translate
45.000000 rotate
0.000000 0 m /two glyphshow
8.907227 0 m /zero glyphshow
17.814453 0 m /two glyphshow
26.721680 0 m /zero glyphshow
35.628906 0 m /zero glyphshow
44.536133 0 m /nine glyphshow
53.443359 0 m /one glyphshow
62.350586 0 m /six glyphshow
grestore
0.796 setgray
gsave
764.2 262.4 70.27 22.68 clipbox
268.475679 22.68 m
268.475679 285.12 l
stroke
grestore
0.000 setgray
gsave
246.019515 -38.725416 translate
45.000000 rotate
0.000000 0 m /two glyphshow
8.907227 0 m /zero glyphshow
17.814453 0 m /two glyphshow
26.721680 0 m /zero glyphshow
35.628906 0 m /zero glyphshow
44.536133 0 m /nine glyphshow
53.443359 0 m /one glyphshow
62.350586 0 m /seven glyphshow
grestore
0.796 setgray
gsave
764.2 262.4 70.27 22.68 clipbox
309.342417 22.68 m
309.342417 285.12 l
stroke
grestore
0.000 setgray
gsave
286.886253 -38.725416 translate
45.000000 rotate
0.000000 0 m /two glyphshow
8.907227 0 m /zero glyphshow
17.814453 0 m /two glyphshow
26.721680 0 m /zero glyphshow
35.628906 0 m /zero glyphshow
44.536133 0 m /nine glyphshow
53.443359 0 m /one glyphshow
62.350586 0 m /eight glyphshow
grestore
0.796 setgray
gsave
764.2 262.4 70.27 22.68 clipbox
350.209155 22.68 m
350.209155 285.12 l
stroke
grestore
0.000 setgray
gsave
327.752991 -38.725416 translate
45.000000 rotate
0.000000 0 m /two glyphshow
8.907227 0 m /zero glyphshow
17.814453 0 m /two glyphshow
26.721680 0 m /zero glyphshow
35.628906 0 m /zero glyphshow
44.536133 0 m /nine glyphshow
53.443359 0 m /one glyphshow
62.350586 0 m /nine glyphshow
grestore
0.796 setgray
gsave
764.2 262.4 70.27 22.68 clipbox
391.075893 22.68 m
391.075893 285.12 l
stroke
grestore
0.000 setgray
gsave
368.619728 -38.725416 translate
45.000000 rotate
0.000000 0 m /two glyphshow
8.907227 0 m /zero glyphshow
17.814453 0 m /two glyphshow
26.721680 0 m /zero glyphshow
35.628906 0 m /zero glyphshow
44.536133 0 m /nine glyphshow
53.443359 0 m /two glyphshow
62.350586 0 m /zero glyphshow
grestore
0.796 setgray
gsave
764.2 262.4 70.27 22.68 clipbox
431.942631 22.68 m
431.942631 285.12 l
stroke
grestore
0.000 setgray
gsave
409.486466 -38.725416 translate
45.000000 rotate
0.000000 0 m /two glyphshow
8.907227 0 m /zero glyphshow
17.814453 0 m /two glyphshow
26.721680 0 m /zero glyphshow
35.628906 0 m /zero glyphshow
44.536133 0 m /nine glyphshow
53.443359 0 m /two glyphshow
62.350586 0 m /one glyphshow
grestore
0.796 setgray
gsave
764.2 262.4 70.27 22.68 clipbox
472.809369 22.68 m
472.809369 285.12 l
stroke
grestore
0.000 setgray
gsave
450.353204 -38.725416 translate
45.000000 rotate
0.000000 0 m /two glyphshow
8.907227 0 m /zero glyphshow
17.814453 0 m /two glyphshow
26.721680 0 m /zero glyphshow
35.628906 0 m /zero glyphshow
44.536133 0 m /nine glyphshow
53.443359 0 m /two glyphshow
62.350586 0 m /two glyphshow
grestore
0.796 setgray
gsave
764.2 262.4 70.27 22.68 clipbox
513.676107 22.68 m
513.676107 285.12 l
stroke
grestore
0.000 setgray
gsave
491.219942 -38.725416 translate
45.000000 rotate
0.000000 0 m /two glyphshow
8.907227 0 m /zero glyphshow
17.814453 0 m /two glyphshow
26.721680 0 m /zero glyphshow
35.628906 0 m /zero glyphshow
44.536133 0 m /nine glyphshow
53.443359 0 m /two glyphshow
62.350586 0 m /three glyphshow
grestore
0.796 setgray
gsave
764.2 262.4 70.27 22.68 clipbox
554.542845 22.68 m
554.542845 285.12 l
stroke
grestore
0.000 setgray
gsave
532.086680 -38.725416 translate
45.000000 rotate
0.000000 0 m /two glyphshow
8.907227 0 m /zero glyphshow
17.814453 0 m /two glyphshow
26.721680 0 m /zero glyphshow
35.628906 0 m /zero glyphshow
44.536133 0 m /nine glyphshow
53.443359 0 m /two glyphshow
62.350586 0 m /four glyphshow
grestore
0.796 setgray
gsave
764.2 262.4 70.27 22.68 clipbox
595.409583 22.68 m
595.409583 285.12 l
stroke
grestore
0.000 setgray
gsave
572.953418 -38.725416 translate
45.000000 rotate
0.000000 0 m /two glyphshow
8.907227 0 m /zero glyphshow
17.814453 0 m /two glyphshow
26.721680 0 m /zero glyphshow
35.628906 0 m /zero glyphshow
44.536133 0 m /nine glyphshow
53.443359 0 m /two glyphshow
62.350586 0 m /five glyphshow
grestore
0.796 setgray
gsave
764.2 262.4 70.27 22.68 clipbox
636.276321 22.68 m
636.276321 285.12 l
stroke
grestore
0.000 setgray
gsave
613.820156 -38.725416 translate
45.000000 rotate
0.000000 0 m /two glyphshow
8.907227 0 m /zero glyphshow
17.814453 0 m /two glyphshow
26.721680 0 m /zero glyphshow
35.628906 0 m /zero glyphshow
44.536133 0 m /nine glyphshow
53.443359 0 m /two glyphshow
62.350586 0 m /six glyphshow
grestore
0.796 setgray
gsave
764.2 262.4 70.27 22.68 clipbox
677.143059 22.68 m
677.143059 285.12 l
stroke
grestore
0.000 setgray
gsave
654.686894 -38.725416 translate
45.000000 rotate
0.000000 0 m /two glyphshow
8.907227 0 m /zero glyphshow
17.814453 0 m /two glyphshow
26.721680 0 m /zero glyphshow
35.628906 0 m /zero glyphshow
44.536133 0 m /nine glyphshow
53.443359 0 m /two glyphshow
62.350586 0 m /seven glyphshow
grestore
0.796 setgray
gsave
764.2 262.4 70.27 22.68 clipbox
718.009797 22.68 m
718.009797 285.12 l
stroke
grestore
0.000 setgray
gsave
695.553632 -38.725416 translate
45.000000 rotate
0.000000 0 m /two glyphshow
8.907227 0 m /zero glyphshow
17.814453 0 m /two glyphshow
26.721680 0 m /zero glyphshow
35.628906 0 m /zero glyphshow
44.536133 0 m /nine glyphshow
53.443359 0 m /two glyphshow
62.350586 0 m /eight glyphshow
grestore
0.796 setgray
gsave
764.2 262.4 70.27 22.68 clipbox
758.876535 22.68 m
758.876535 285.12 l
stroke
grestore
0.000 setgray
gsave
736.420370 -38.725416 translate
45.000000 rotate
0.000000 0 m /two glyphshow
8.907227 0 m /zero glyphshow
17.814453 0 m /two glyphshow
26.721680 0 m /zero glyphshow
35.628906 0 m /zero glyphshow
44.536133 0 m /nine glyphshow
53.443359 0 m /two glyphshow
62.350586 0 m /nine glyphshow
grestore
0.796 setgray
gsave
764.2 262.4 70.27 22.68 clipbox
799.743273 22.68 m
799.743273 285.12 l
stroke
grestore
0.000 setgray
gsave
777.287108 -38.725416 translate
45.000000 rotate
0.000000 0 m /two glyphshow
8.907227 0 m /zero glyphshow
17.814453 0 m /two glyphshow
26.721680 0 m /zero glyphshow
35.628906 0 m /zero glyphshow
44.536133 0 m /nine glyphshow
53.443359 0 m /three glyphshow
62.350586 0 m /zero glyphshow
grestore
/DejaVuSans findfont
16.800 scalefont
setfont
gsave
432.352562 -57.702320 translate
0.000000 rotate
0.000000 0 m /D glyphshow
12.897827 0 m /a glyphshow
23.162109 0 m /t glyphshow
29.729614 0 m /e glyphshow
grestore
0.796 setgray
gsave
764.2 262.4 70.27 22.68 clipbox
70.272 38.199787 m
834.48 38.199787 l
stroke
grestore
0.000 setgray
/DejaVuSans findfont
14.000 scalefont
setfont
gsave
40.053250 32.879475 translate
0.000000 rotate
0.000000 0 m /one glyphshow
8.907227 0 m /zero glyphshow
17.814453 0 m /zero glyphshow
grestore
0.796 setgray
gsave
764.2 262.4 70.27 22.68 clipbox
70.272 78.096412 m
834.48 78.096412 l
stroke
grestore
0.000 setgray
gsave
40.053250 72.776100 translate
0.000000 rotate
0.000000 0 m /two glyphshow
8.907227 0 m /zero glyphshow
17.814453 0 m /zero glyphshow
grestore
0.796 setgray
gsave
764.2 262.4 70.27 22.68 clipbox
70.272 117.993037 m
834.48 117.993037 l
stroke
grestore
0.000 setgray
gsave
40.053250 112.672725 translate
0.000000 rotate
0.000000 0 m /three glyphshow
8.907227 0 m /zero glyphshow
17.814453 0 m /zero glyphshow
grestore
0.796 setgray
gsave
764.2 262.4 70.27 22.68 clipbox
70.272 157.889663 m
834.48 157.889663 l
stroke
grestore
0.000 setgray
gsave
40.053250 152.569350 translate
0.000000 rotate
0.000000 0 m /four glyphshow
8.907227 0 m /zero glyphshow
17.814453 0 m /zero glyphshow
grestore
0.796 setgray
gsave
764.2 262.4 70.27 22.68 clipbox
70.272 197.786288 m
834.48 197.786288 l
stroke
grestore
0.000 setgray
gsave
40.053250 192.465975 translate
0.000000 rotate
0.000000 0 m /five glyphshow
8.907227 0 m /zero glyphshow
17.814453 0 m /zero glyphshow
grestore
0.796 setgray
gsave
764.2 262.4 70.27 22.68 clipbox
70.272 237.682913 m
834.48 237.682913 l
stroke
grestore
0.000 setgray
gsave
40.053250 232.362600 translate
0.000000 rotate
0.000000 0 m /six glyphshow
8.907227 0 m /zero glyphshow
17.814453 0 m /zero glyphshow
grestore
0.796 setgray
gsave
764.2 262.4 70.27 22.68 clipbox
70.272 277.579538 m
834.48 277.579538 l
stroke
grestore
0.000 setgray
gsave
40.053250 272.259225 translate
0.000000 rotate
0.000000 0 m /seven glyphshow
8.907227 0 m /zero glyphshow
17.814453 0 m /zero glyphshow
grestore
/DejaVuSans findfont
16.800 scalefont
setfont
gsave
32.522000 70.775000 translate
90.000000 rotate
0.000000 0 m /I glyphshow
4.939941 0 m /C glyphshow
16.635498 0 m /U glyphshow
28.895386 0 m /comma glyphshow
34.219727 0 m /space glyphshow
39.544067 0 m /i glyphshow
44.197754 0 m /n glyphshow
54.813721 0 m /H glyphshow
67.408936 0 m /o glyphshow
77.656860 0 m /s glyphshow
86.383545 0 m /p glyphshow
97.015869 0 m /comma glyphshow
102.340210 0 m /space glyphshow
107.664551 0 m /o glyphshow
117.912476 0 m /n glyphshow
128.528442 0 m /V glyphshow
138.736816 0 m /e glyphshow
149.041992 0 m /n glyphshow
159.657959 0 m /t glyphshow
grestore
4.000 setlinewidth
0.000 0.561 0.835 setrgbcolor
gsave
764.2 262.4 70.27 22.68 clipbox
105.008727 71.313986 m
145.875465 73.308817 l
186.742203 74.505716 l
227.608941 75.702615 l
268.475679 75.702615 l
309.342417 76.500547 l
350.209155 76.899514 l
391.075893 77.697446 l
431.942631 77.697446 l
472.809369 77.697446 l
513.676107 78.096412 l
554.542845 80.091244 l
595.409583 83.68194 l
636.276321 84.080906 l
677.143059 86.87367 l
718.009797 87.272636 l
758.876535 87.272636 l
799.743273 87.671602 l
stroke
grestore
0.988 0.310 0.188 setrgbcolor
gsave
764.2 262.4 70.27 22.68 clipbox
105.008727 266.408483 m
145.875465 234.491183 l
186.742203 222.921161 l
227.608941 235.688081 l
268.475679 273.190909 l
309.342417 234.890149 l
350.209155 269.999179 l
391.075893 231.698419 l
431.942631 232.097385 l
472.809369 253.242597 l
513.676107 234.890149 l
554.542845 247.657069 l
595.409583 252.84363 l
636.276321 251.646732 l
677.143059 258.030192 l
718.009797 251.247765 l
758.876535 264.014685 l
799.743273 266.009517 l
stroke
grestore
0.898 0.682 0.220 setrgbcolor
gsave
764.2 262.4 70.27 22.68 clipbox
105.008727 37.401855 m
145.875465 41.391517 l
186.742203 43.386348 l
227.608941 37.401855 l
268.475679 39.396686 l
309.342417 44.184281 l
350.209155 38.598753 l
391.075893 44.184281 l
431.942631 40.194618 l
472.809369 34.609091 l
513.676107 43.386348 l
554.542845 36.204956 l
595.409583 48.971876 l
636.276321 48.57291 l
677.143059 51.365673 l
718.009797 45.38118 l
758.876535 48.57291 l
799.743273 46.578078 l
stroke
grestore
3.000 setlinewidth
0 setlinejoin
2 setlinecap
0.941 setgray
gsave
70.272 22.68 m
70.272 285.12 l
stroke
grestore
gsave
834.48 22.68 m
834.48 285.12 l
stroke
grestore
gsave
70.272 22.68 m
834.48 22.68 l
stroke
grestore
gsave
70.272 285.12 m
834.48 285.12 l
stroke
grestore
0.000 setgray
/DejaVuSans findfont
20.160 scalefont
setfont
gsave
271.985375 291.120000 translate
0.000000 rotate
0.000000 0 m /O glyphshow
15.840576 0 m /H glyphshow
30.973633 0 m /space glyphshow
37.370789 0 m /c glyphshow
48.435608 0 m /u glyphshow
61.190613 0 m /r glyphshow
69.089661 0 m /r glyphshow
76.863708 0 m /e glyphshow
89.245300 0 m /n glyphshow
102.000305 0 m /t glyphshow
109.891113 0 m /l glyphshow
115.482483 0 m /y glyphshow
127.392395 0 m /comma glyphshow
133.789551 0 m /space glyphshow
140.186707 0 m /space glyphshow
146.583862 0 m /I glyphshow
152.519165 0 m /C glyphshow
166.571289 0 m /U glyphshow
181.301453 0 m /space glyphshow
187.698608 0 m /hyphen glyphshow
194.960510 0 m /space glyphshow
201.357666 0 m /i glyphshow
206.949036 0 m /n glyphshow
219.704041 0 m /H glyphshow
234.837097 0 m /o glyphshow
247.149902 0 m /s glyphshow
257.634949 0 m /p glyphshow
270.409607 0 m /space glyphshow
276.806763 0 m /hyphen glyphshow
284.068665 0 m /space glyphshow
290.465820 0 m /o glyphshow
302.778625 0 m /n glyphshow
315.533630 0 m /V glyphshow
327.800781 0 m /e glyphshow
340.182373 0 m /n glyphshow
352.937378 0 m /t glyphshow
grestore

end
showpage
%%EOF
